{
  "installed": {
    "client_id": "866839362825-c7giump57kkkq9dnhgao4ip74phgn4ed.apps.googleusercontent.com",
    "project_id": "travis-275418",
    "auth_uri": "https://accounts.google.com/o/oauth2/auth",
    "token_uri": "https://oauth2.googleapis.com/token",
    "auth_provider_x509_cert_url": "https://www.googleapis.com/oauth2/v1/certs",
    "client_secret": "5Vtx4rKY346PrV_fm3r5QfmZ",
    "redirect_uris": [
      "urn:ietf:wg:oauth:2.0:oob",
      "http://localhost"
    ]
  }
}
