// +heroku goVersion go1.16
module gitlab.com/travisby/gmail-map-reduce

go 1.16

require (
	cloud.google.com/go v0.91.1 // indirect
	github.com/golang/groupcache v0.0.0-20210331224755-41bb18bfe9da // indirect
	golang.org/x/net v0.0.0-20210805182204-aaa1db679c0d // indirect
	golang.org/x/oauth2 v0.0.0-20210810183815-faf39c7919d5 // indirect
	golang.org/x/sys v0.0.0-20210809222454-d867a43fc93e // indirect
	golang.org/x/text v0.3.7 // indirect
	google.golang.org/api v0.53.0 // indirect
	google.golang.org/grpc v1.40.0 // indirect
)
